cod_tipo_oper,clase_transaccion,cod_cuenta_contable,Debe_Haber,campo_transaccion,calculo,cod_status
AOA,Aporte,41102100001,H,NULL,NULL,A
AOA,Aporte,43102199001,H,NULL,NULL,A
ROA,"Reverso Aporte",43102199001,D,NULL,NULL,A
ROA,"Reverso Aporte",41102100001,H,NULL,NULL,A
RRP,"Reverso Retiro",41102100001,D,NULL,NULL,A
RRP,"Reverso Retiro",43102199001,H,NULL,NULL,A
RPD,"Reverso Retiro",41102100001,D,NULL,NULL,A
RPD,"Reverso Retrio",43102199001,H,NULL,NULL,A
IIA,Aporte,41700100001,D,NULL,NULL,A
IIA,Aporte,43102199001,H,NULL,NULL,A
RII,"Reverso Aporte",43102199001,D,NULL,NULL,A
RII,"Reverso Aporte",41700100001,H,NULL,NULL,A
DIA,Retiro,43102199001,D,NULL,NULL,A
DIA,Retiro,41700100001,H,NULL,NULL,A
RDI,"Reverso Retiro",41700100001,D,NULL,NULL,A
RDI,"Reverso Retiro",43102199001,H,NULL,NULL,A
IAC,Aporte,41200100006,D,NULL,NULL,A
IAC,Aporte,43102199001,H,NULL,NULL,A
RAC,"Reverso Aporte",43102199001,D,NULL,NULL,A
RAC,"Reverso Aporte",41200100006,H,NULL,NULL,A
DAC,Retiro,43102199001,D,NULL,NULL,A
DAC,Retiro,41200100006,H,NULL,NULL,A
VAI,"Reverso Retiro",41200100006,D,NULL,NULL,A
VAI,"Reverso Retiro",43102199001,H,NULL,NULL,A
CBI,Capitalización,43400100001,D,NULL,NULL,A
CBI,Capitalización,43102199001,H,NULL,NULL,A
KCF,"Reverso Capitalización",43102199001,D,NULL,NULL,A
KCF,"Reverso Capitalización",43400100001,H,NULL,NULL,A
CCF,"Reverso Retiro",41102100001,D,NULL,NULL,A
CCF,"Reverso Retiro",43102199001,H,NULL,NULL,A
IOA,Incorporación,41102100001,D,NULL,NULL,A
IOA,Incorporación,43102199001,H,NULL,NULL,A
ISL,"Pago ISLR",42200100016,D,NULL,NULL,A
ISL,"Pago ISLR",41102100001,H,NULL,NULL,A
IPT,"Reverso Pago ISLR",41102100001,D,NULL,NULL,A
IPT,"Reverso Pago ISLR",42200100016,H,NULL,NULL,A
AFC,"Reverso Retiro",42200100016,D,NULL,NULL,A
AFC,"Reverso Retiro",43102199001,H,NULL,NULL,A
