codigo,descripcion,formula,cod_status
CAF,CAPITAL,TOT_HABERES+TOT_ANTICIPOS,A
CFA,FIDEICOMITENTES,CAN_FIDEICOM,A
CPO,"CAPITAL PROMEDIO",NULL,A
CTA,"CANTIDAD DE TRANSACCIONES APORTE",CAN_APORTES,A
CXC,"CUENTA POR COBRAR",CONTAB_461001000010,A
CXP,"CUENTA POR PAGAR",NULL,A
FLA,FLAT,,A
PBF,"PRODUCTO BRUTO",CONTAB_451,A
PMC,"PRODUCTO MAS CAPITAL",TOT_HABERES+TOT_ANTICIPOS+CONTAB_451+CONTAB_434,A
PNT,"PROMEDIO NETO",CONTAB_431+CONTAB_451+CONTAB_434+CONTAB_413,A
